{
  "appId": "io.noeapp",
  "appName": "NOÉ",
  "webDir": "build",
  "bundledWebRuntime": false,
  "backgroundColor": "#000A2E",
  "server": {
    "androidScheme": "https",
    "hostname": "orga.noe-app.io"
  }
}
